.gitignore/ProcessadorDidatico/simulation/qsim/processor.msim.vcd
$comment
	File created using the following command:
		vcd file processor.msim.vcd -direction
$end
$date
	Wed Jun 20 11:49:49 2018
$end
$version
	ModelSim Version 10.5b
$end
$timescale
	1ps
$end

$scope module processor_vlg_vec_tst $end
$var reg 1 ! Em $end
$var reg 3 " w [2:0] $end
$var wire 1 # Y [0] $end
$var wire 1 $ Y [1] $end
$var wire 1 % Y [2] $end
$var wire 1 & Y [3] $end
$var wire 1 ' Y [4] $end
$var wire 1 ( Y [5] $end
$var wire 1 ) Y [6] $end
$var wire 1 * Y [7] $end

$scope module i1 $end
$var wire 1 + gnd $end
$var wire 1 , vcc $end
$var wire 1 - unknown $end
$var tri1 1 . devclrn $end
$var tri1 1 / devpor $end
$var tri1 1 0 devoe $end
$var wire 1 1 Y[7]~output_o $end
$var wire 1 2 Y[6]~output_o $end
$var wire 1 3 Y[5]~output_o $end
$var wire 1 4 Y[4]~output_o $end
$var wire 1 5 Y[3]~output_o $end
$var wire 1 6 Y[2]~output_o $end
$var wire 1 7 Y[1]~output_o $end
$var wire 1 8 Y[0]~output_o $end
$var wire 1 9 w[0]~input_o $end
$var wire 1 : Em~input_o $end
$var wire 1 ; w[1]~input_o $end
$var wire 1 < w[2]~input_o $end
$var wire 1 = Y~0_combout $end
$var wire 1 > Y~1_combout $end
$var wire 1 ? Y~2_combout $end
$var wire 1 @ Y~3_combout $end
$var wire 1 A Y~4_combout $end
$var wire 1 B Y~5_combout $end
$var wire 1 C Y~6_combout $end
$var wire 1 D Y~7_combout $end
$upscope $end
$upscope $end
$enddefinitions $end
#0
$dumpvars
1!
b111 "
1*
0)
0(
0'
0&
0%
0$
0#
0+
1,
x-
1.
1/
10
11
02
03
04
05
06
07
08
19
1:
1;
1<
1=
0>
0?
0@
0A
0B
0C
0D
$end
#30000
b11 "
b1 "
0;
0<
1C
0=
01
17
1$
0*
#60000
b101 "
b111 "
1;
1<
0C
1=
11
07
0$
1*
#90000
b110 "
b100 "
09
0;
1@
0=
01
14
1'
0*
#150000
b110 "
1;
0@
1>
12
04
0'
1)
#210000
b111 "
b101 "
19
0;
1?
0>
02
13
1(
0)
#240000
b1 "
b11 "
1;
0<
1A
0?
03
15
1&
0(
#270000
b111 "
1<
0A
1=
11
05
0&
1*
#300000
b101 "
b1 "
0;
0<
1C
0=
01
17
1$
0*
#330000
b11 "
1;
0C
1A
15
07
0$
1&
#360000
b111 "
1<
0A
1=
11
05
0&
1*
#390000
b101 "
0;
1?
0=
01
13
1(
0*
#420000
b1 "
0<
1C
0?
03
17
1$
0(
#450000
b0 "
b10 "
b110 "
09
1;
1<
0C
1>
12
07
0$
1)
#480000
b111 "
b101 "
19
0;
1?
0>
02
13
1(
0)
#510000
b1 "
b11 "
1;
0<
1A
0?
03
15
1&
0(
#540000
b10 "
09
1B
0A
05
16
1%
0&
#570000
b110 "
b111 "
19
1<
0B
1=
11
06
0%
1*
#630000
b101 "
b1 "
b0 "
09
0;
0<
1D
0=
01
18
1#
0*
#660000
b10 "
b11 "
19
1;
0D
1A
15
08
0#
1&
#690000
b111 "
b101 "
0;
1<
0A
1?
13
05
0&
1(
#720000
b1 "
b11 "
1;
0<
1A
0?
03
15
1&
0(
#750000
b111 "
b101 "
0;
1<
0A
1?
13
05
0&
1(
#760000
0!
0:
0?
03
0(
#810000
b100 "
09
#840000
b0 "
b1 "
19
0<
#870000
b11 "
b111 "
1;
1<
#900000
b101 "
b1 "
0;
0<
#930000
b0 "
09
#960000
b1 "
19
